{
  "tracks": {
    "href": "https://api.spotify.com/v1/search?query=Kenya+popularity%3A%3E30&type=track&offset=0&limit=1",
    "items": [
      {
        "album": {
          "album_type": "single",
          "artists": [
            {
              "external_urls": {
                "spotify": "https://open.spotify.com/artist/2zhossaaVN2pXg5p8o101X"
              },
              "href": "https://api.spotify.com/v1/artists/2zhossaaVN2pXg5p8o101X",
              "id": "2zhossaaVN2pXg5p8o101X",
              "name": "Bien",
              "type": "artist",
              "uri": "spotify:artist:2zhossaaVN2pXg5p8o101X"
            }
          ],
          "available_markets": [
            "AD",
            "AE",
            "AG",
           
            "ZM",
            "ZW"
          ],
          "external_urls": {
            "spotify": "https://open.spotify.com/album/2XucwpZyoKaEjM8lJyZCX5"
          },
          "href": "https://api.spotify.com/v1/albums/2XucwpZyoKaEjM8lJyZCX5",
          "id": "2XucwpZyoKaEjM8lJyZCX5",
          "images": [
            {
              "height": 640,
              "url": "https://i.scdn.co/image/ab67616d0000b273712b997e209a412618bf7d63",
              "width": 640
            },
            {
              "height": 300,
              "url": "https://i.scdn.co/image/ab67616d00001e02712b997e209a412618bf7d63",
              "width": 300
            },
            {
              "height": 64,
              "url": "https://i.scdn.co/image/ab67616d00004851712b997e209a412618bf7d63",
              "width": 64
            }
          ],
          "name": "Inauma",
          "release_date": "2022-07-29",
          "release_date_precision": "day",
          "total_tracks": 1,
          "type": "album",
          "uri": "spotify:album:2XucwpZyoKaEjM8lJyZCX5"
        },
        "artists": [
          {
            "external_urls": {
              "spotify": "https://open.spotify.com/artist/2zhossaaVN2pXg5p8o101X"
            },
            "href": "https://api.spotify.com/v1/artists/2zhossaaVN2pXg5p8o101X",
            "id": "2zhossaaVN2pXg5p8o101X",
            "name": "Bien",
            "type": "artist",
            "uri": "spotify:artist:2zhossaaVN2pXg5p8o101X"
          }
        ],
        "available_markets": [
          "AR",
          "AU",
          "AT",
          
          "LI",
          "MC",
          "ID",
          "JP",
          "TH",
          "VN",
          "RO"
       
       
        ],
        "disc_number": 1,
        "duration_ms": 210309,
        "explicit": false,
        "external_ids": { "isrc": "USA2P2231982" },
        "external_urls": {
          "spotify": "https://open.spotify.com/track/3HlLqEWLhoKV9GVVOFerQb"
        },
        "href": "https://api.spotify.com/v1/tracks/3HlLqEWLhoKV9GVVOFerQb",
        "id": "3HlLqEWLhoKV9GVVOFerQb",
        "is_local": false,
        "name": "Inauma",
        "popularity": 46,
        "preview_url": "https://p.scdn.co/mp3-preview/5d2a73566780998e70c538509ef0b60aa5a9c115?cid=2f33fbe518d54e698b1a95898b110d18",
        "track_number": 1,
        "type": "track",
        "uri": "spotify:track:3HlLqEWLhoKV9GVVOFerQb"
      }
    ],
    "limit": 1,
    "next": "https://api.spotify.com/v1/search?query=Kenya+popularity%3A%3E30&type=track&offset=1&limit=1",
    "offset": 0,
    "previous": null,
    "total": 1000
  }
}

genres
